HW1/hw1_1/dump.vcd
$date
	Sat Jan 28 23:39:55 2017
$end
$version
	QuestaSim Version 10.4c
$end
$timescale
	1ns
$end

$scope module quadmux4_1_bench $end
$var reg 4 ! InA [3:0] $end
$var reg 4 " InB [3:0] $end
$var reg 4 # InC [3:0] $end
$var reg 4 $ InD [3:0] $end
$var reg 2 % S [1:0] $end
$var wire 1 & Out [3] $end
$var wire 1 ' Out [2] $end
$var wire 1 ( Out [1] $end
$var wire 1 ) Out [0] $end
$var wire 1 * Clk $end
$var wire 1 + rst $end
$var wire 1 , err $end

$scope module my_clkrst $end
$var reg 1 - clk $end
$var reg 1 . rst $end
$var wire 1 , err $end
$var integer 32 / cycle_count $end
$upscope $end

$scope module DUT $end
$var wire 1 0 InA [3] $end
$var wire 1 1 InA [2] $end
$var wire 1 2 InA [1] $end
$var wire 1 3 InA [0] $end
$var wire 1 4 InB [3] $end
$var wire 1 5 InB [2] $end
$var wire 1 6 InB [1] $end
$var wire 1 7 InB [0] $end
$var wire 1 8 InC [3] $end
$var wire 1 9 InC [2] $end
$var wire 1 : InC [1] $end
$var wire 1 ; InC [0] $end
$var wire 1 < InD [3] $end
$var wire 1 = InD [2] $end
$var wire 1 > InD [1] $end
$var wire 1 ? InD [0] $end
$var wire 1 @ S [1] $end
$var wire 1 A S [0] $end
$var wire 1 & Out [3] $end
$var wire 1 ' Out [2] $end
$var wire 1 ( Out [1] $end
$var wire 1 ) Out [0] $end

$scope module inst[3] $end
$var wire 1 0 InA $end
$var wire 1 4 InB $end
$var wire 1 8 InC $end
$var wire 1 < InD $end
$var wire 1 @ S [1] $end
$var wire 1 A S [0] $end
$var wire 1 & Out $end
$var wire 1 B mux2_0_out $end
$var wire 1 C mux2_1_out $end

$scope module inst1 $end
$var wire 1 0 InA $end
$var wire 1 4 InB $end
$var wire 1 A S $end
$var wire 1 B Out $end
$var wire 1 D S_n $end
$var wire 1 E w1 $end
$var wire 1 F w2 $end
$var wire 1 G w3 $end

$scope module inst1 $end
$var wire 1 A in1 $end
$var wire 1 D out $end
$upscope $end

$scope module inst2 $end
$var wire 1 D in1 $end
$var wire 1 0 in2 $end
$var wire 1 E out $end
$upscope $end

$scope module inst3 $end
$var wire 1 A in1 $end
$var wire 1 4 in2 $end
$var wire 1 F out $end
$upscope $end

$scope module inst4 $end
$var wire 1 E in1 $end
$var wire 1 F in2 $end
$var wire 1 B out $end
$upscope $end
$upscope $end

$scope module inst2 $end
$var wire 1 8 InA $end
$var wire 1 < InB $end
$var wire 1 A S $end
$var wire 1 C Out $end
$var wire 1 H S_n $end
$var wire 1 I w1 $end
$var wire 1 J w2 $end
$var wire 1 K w3 $end

$scope module inst1 $end
$var wire 1 A in1 $end
$var wire 1 H out $end
$upscope $end

$scope module inst2 $end
$var wire 1 H in1 $end
$var wire 1 8 in2 $end
$var wire 1 I out $end
$upscope $end

$scope module inst3 $end
$var wire 1 A in1 $end
$var wire 1 < in2 $end
$var wire 1 J out $end
$upscope $end

$scope module inst4 $end
$var wire 1 I in1 $end
$var wire 1 J in2 $end
$var wire 1 C out $end
$upscope $end
$upscope $end

$scope module inst3 $end
$var wire 1 B InA $end
$var wire 1 C InB $end
$var wire 1 @ S $end
$var wire 1 & Out $end
$var wire 1 L S_n $end
$var wire 1 M w1 $end
$var wire 1 N w2 $end
$var wire 1 O w3 $end

$scope module inst1 $end
$var wire 1 @ in1 $end
$var wire 1 L out $end
$upscope $end

$scope module inst2 $end
$var wire 1 L in1 $end
$var wire 1 B in2 $end
$var wire 1 M out $end
$upscope $end

$scope module inst3 $end
$var wire 1 @ in1 $end
$var wire 1 C in2 $end
$var wire 1 N out $end
$upscope $end

$scope module inst4 $end
$var wire 1 M in1 $end
$var wire 1 N in2 $end
$var wire 1 & out $end
$upscope $end
$upscope $end
$upscope $end

$scope module inst[2] $end
$var wire 1 1 InA $end
$var wire 1 5 InB $end
$var wire 1 9 InC $end
$var wire 1 = InD $end
$var wire 1 @ S [1] $end
$var wire 1 A S [0] $end
$var wire 1 ' Out $end
$var wire 1 P mux2_0_out $end
$var wire 1 Q mux2_1_out $end

$scope module inst1 $end
$var wire 1 1 InA $end
$var wire 1 5 InB $end
$var wire 1 A S $end
$var wire 1 P Out $end
$var wire 1 R S_n $end
$var wire 1 S w1 $end
$var wire 1 T w2 $end
$var wire 1 U w3 $end

$scope module inst1 $end
$var wire 1 A in1 $end
$var wire 1 R out $end
$upscope $end

$scope module inst2 $end
$var wire 1 R in1 $end
$var wire 1 1 in2 $end
$var wire 1 S out $end
$upscope $end

$scope module inst3 $end
$var wire 1 A in1 $end
$var wire 1 5 in2 $end
$var wire 1 T out $end
$upscope $end

$scope module inst4 $end
$var wire 1 S in1 $end
$var wire 1 T in2 $end
$var wire 1 P out $end
$upscope $end
$upscope $end

$scope module inst2 $end
$var wire 1 9 InA $end
$var wire 1 = InB $end
$var wire 1 A S $end
$var wire 1 Q Out $end
$var wire 1 V S_n $end
$var wire 1 W w1 $end
$var wire 1 X w2 $end
$var wire 1 Y w3 $end

$scope module inst1 $end
$var wire 1 A in1 $end
$var wire 1 V out $end
$upscope $end

$scope module inst2 $end
$var wire 1 V in1 $end
$var wire 1 9 in2 $end
$var wire 1 W out $end
$upscope $end

$scope module inst3 $end
$var wire 1 A in1 $end
$var wire 1 = in2 $end
$var wire 1 X out $end
$upscope $end

$scope module inst4 $end
$var wire 1 W in1 $end
$var wire 1 X in2 $end
$var wire 1 Q out $end
$upscope $end
$upscope $end

$scope module inst3 $end
$var wire 1 P InA $end
$var wire 1 Q InB $end
$var wire 1 @ S $end
$var wire 1 ' Out $end
$var wire 1 Z S_n $end
$var wire 1 [ w1 $end
$var wire 1 \ w2 $end
$var wire 1 ] w3 $end

$scope module inst1 $end
$var wire 1 @ in1 $end
$var wire 1 Z out $end
$upscope $end

$scope module inst2 $end
$var wire 1 Z in1 $end
$var wire 1 P in2 $end
$var wire 1 [ out $end
$upscope $end

$scope module inst3 $end
$var wire 1 @ in1 $end
$var wire 1 Q in2 $end
$var wire 1 \ out $end
$upscope $end

$scope module inst4 $end
$var wire 1 [ in1 $end
$var wire 1 \ in2 $end
$var wire 1 ' out $end
$upscope $end
$upscope $end
$upscope $end

$scope module inst[1] $end
$var wire 1 2 InA $end
$var wire 1 6 InB $end
$var wire 1 : InC $end
$var wire 1 > InD $end
$var wire 1 @ S [1] $end
$var wire 1 A S [0] $end
$var wire 1 ( Out $end
$var wire 1 ^ mux2_0_out $end
$var wire 1 _ mux2_1_out $end

$scope module inst1 $end
$var wire 1 2 InA $end
$var wire 1 6 InB $end
$var wire 1 A S $end
$var wire 1 ^ Out $end
$var wire 1 ` S_n $end
$var wire 1 a w1 $end
$var wire 1 b w2 $end
$var wire 1 c w3 $end

$scope module inst1 $end
$var wire 1 A in1 $end
$var wire 1 ` out $end
$upscope $end

$scope module inst2 $end
$var wire 1 ` in1 $end
$var wire 1 2 in2 $end
$var wire 1 a out $end
$upscope $end

$scope module inst3 $end
$var wire 1 A in1 $end
$var wire 1 6 in2 $end
$var wire 1 b out $end
$upscope $end

$scope module inst4 $end
$var wire 1 a in1 $end
$var wire 1 b in2 $end
$var wire 1 ^ out $end
$upscope $end
$upscope $end

$scope module inst2 $end
$var wire 1 : InA $end
$var wire 1 > InB $end
$var wire 1 A S $end
$var wire 1 _ Out $end
$var wire 1 d S_n $end
$var wire 1 e w1 $end
$var wire 1 f w2 $end
$var wire 1 g w3 $end

$scope module inst1 $end
$var wire 1 A in1 $end
$var wire 1 d out $end
$upscope $end

$scope module inst2 $end
$var wire 1 d in1 $end
$var wire 1 : in2 $end
$var wire 1 e out $end
$upscope $end

$scope module inst3 $end
$var wire 1 A in1 $end
$var wire 1 > in2 $end
$var wire 1 f out $end
$upscope $end

$scope module inst4 $end
$var wire 1 e in1 $end
$var wire 1 f in2 $end
$var wire 1 _ out $end
$upscope $end
$upscope $end

$scope module inst3 $end
$var wire 1 ^ InA $end
$var wire 1 _ InB $end
$var wire 1 @ S $end
$var wire 1 ( Out $end
$var wire 1 h S_n $end
$var wire 1 i w1 $end
$var wire 1 j w2 $end
$var wire 1 k w3 $end

$scope module inst1 $end
$var wire 1 @ in1 $end
$var wire 1 h out $end
$upscope $end

$scope module inst2 $end
$var wire 1 h in1 $end
$var wire 1 ^ in2 $end
$var wire 1 i out $end
$upscope $end

$scope module inst3 $end
$var wire 1 @ in1 $end
$var wire 1 _ in2 $end
$var wire 1 j out $end
$upscope $end

$scope module inst4 $end
$var wire 1 i in1 $end
$var wire 1 j in2 $end
$var wire 1 ( out $end
$upscope $end
$upscope $end
$upscope $end

$scope module inst[0] $end
$var wire 1 3 InA $end
$var wire 1 7 InB $end
$var wire 1 ; InC $end
$var wire 1 ? InD $end
$var wire 1 @ S [1] $end
$var wire 1 A S [0] $end
$var wire 1 ) Out $end
$var wire 1 l mux2_0_out $end
$var wire 1 m mux2_1_out $end

$scope module inst1 $end
$var wire 1 3 InA $end
$var wire 1 7 InB $end
$var wire 1 A S $end
$var wire 1 l Out $end
$var wire 1 n S_n $end
$var wire 1 o w1 $end
$var wire 1 p w2 $end
$var wire 1 q w3 $end

$scope module inst1 $end
$var wire 1 A in1 $end
$var wire 1 n out $end
$upscope $end

$scope module inst2 $end
$var wire 1 n in1 $end
$var wire 1 3 in2 $end
$var wire 1 o out $end
$upscope $end

$scope module inst3 $end
$var wire 1 A in1 $end
$var wire 1 7 in2 $end
$var wire 1 p out $end
$upscope $end

$scope module inst4 $end
$var wire 1 o in1 $end
$var wire 1 p in2 $end
$var wire 1 l out $end
$upscope $end
$upscope $end

$scope module inst2 $end
$var wire 1 ; InA $end
$var wire 1 ? InB $end
$var wire 1 A S $end
$var wire 1 m Out $end
$var wire 1 r S_n $end
$var wire 1 s w1 $end
$var wire 1 t w2 $end
$var wire 1 u w3 $end

$scope module inst1 $end
$var wire 1 A in1 $end
$var wire 1 r out $end
$upscope $end

$scope module inst2 $end
$var wire 1 r in1 $end
$var wire 1 ; in2 $end
$var wire 1 s out $end
$upscope $end

$scope module inst3 $end
$var wire 1 A in1 $end
$var wire 1 ? in2 $end
$var wire 1 t out $end
$upscope $end

$scope module inst4 $end
$var wire 1 s in1 $end
$var wire 1 t in2 $end
$var wire 1 m out $end
$upscope $end
$upscope $end

$scope module inst3 $end
$var wire 1 l InA $end
$var wire 1 m InB $end
$var wire 1 @ S $end
$var wire 1 ) Out $end
$var wire 1 v S_n $end
$var wire 1 w w1 $end
$var wire 1 x w2 $end
$var wire 1 y w3 $end

$scope module inst1 $end
$var wire 1 @ in1 $end
$var wire 1 v out $end
$upscope $end

$scope module inst2 $end
$var wire 1 v in1 $end
$var wire 1 l in2 $end
$var wire 1 w out $end
$upscope $end

$scope module inst3 $end
$var wire 1 @ in1 $end
$var wire 1 m in2 $end
$var wire 1 x out $end
$upscope $end

$scope module inst4 $end
$var wire 1 w in1 $end
$var wire 1 x in2 $end
$var wire 1 ) out $end
$upscope $end
$upscope $end
$upscope $end
$upscope $end
$upscope $end
$enddefinitions $end
#0
$dumpvars
b100 !
b1 "
b1001 #
b11 $
b1 %
1-
1.
b1 /
1)
0(
0'
0&
1*
1+
z,
1l
1m
0n
1o
0p
zq
0r
1s
0t
zu
1v
0w
1x
zy
0^
1_
0`
1a
1b
zc
0d
1e
0f
zg
1h
1i
1j
zk
0P
0Q
0R
1S
1T
zU
0V
1W
1X
zY
1Z
1[
1\
z]
0B
0C
0D
1E
1F
zG
0H
1I
1J
zK
1L
1M
1N
zO
1A
0@
1?
1>
0=
0<
1;
0:
09
18
17
06
05
04
03
02
11
00
$end
#50
0-
0*
#100
1-
1*
b1101 !
b101 "
b10 #
b1 $
b10 /
0>
0;
1:
08
15
13
10
0T
1f
0_
1P
0[
1'
#150
0-
0*
#200
1-
1*
b110 !
b1101 "
b1101 #
b1100 $
b11 /
0?
1=
1<
1;
0:
19
18
14
03
12
00
0F
0J
0X
1t
0m
1Q
1C
1B
0M
1&
#201
0.
0+
#250
0-
0*
#300
1-
1*
b101 "
b1010 #
b101 $
b11 %
b100 /
1@
1?
0<
0;
1:
09
04
1F
1J
0t
0v
0h
0Z
0\
0L
0N
1M
1[
1w
1m
0C
0B
1N
0x
0&
#350
0-
0*
#400
1-
1*
b10 !
b1111 "
b10 #
b1110 $
b0 %
b101 /
0A
0@
0?
1>
1<
08
16
14
01
1v
1x
1h
1Z
1\
1L
1n
1p
1r
1t
1`
1d
1R
1T
1V
1X
1D
1H
0Q
0P
0e
0a
0m
0l
0'
0)
1^
1_
0i
1(
#450
0-
0*
#500
1-
1*
b101 !
b1100 "
b1101 #
b1101 $
b1 %
b110 /
1A
1?
0>
1;
0:
19
18
07
06
13
02
11
0S
1a
0o
0I
0W
1e
0s
0t
0n
0r
0`
0d
0R
0T
0V
0X
0D
0F
0H
0J
1I
1B
1W
1S
1s
1o
1m
0_
1Q
1C
0^
1P
0[
1i
0M
1&
0(
1'
#550
0-
0*
#600
1-
1*
b11 !
b1010 "
b0 #
b0 $
b10 %
b111 /
0A
1@
0?
0=
0<
0;
09
08
16
05
12
01
0v
0x
0h
0Z
0\
0L
0N
1n
1r
1t
1`
1d
1R
1T
1V
1X
1D
1F
1H
1J
0C
0B
0Q
0P
0a
0m
0o
1M
1[
1)
1l
1x
1^
1\
1N
0&
0'
0)
#650
0-
0*
#700
1-
1*
b1101 !
b110 "
b11 #
b1101 $
b11 %
b1000 /
1A
1?
1=
1<
1;
1:
15
04
02
11
10
0E
0S
1a
0T
0e
0s
0J
0X
0t
0n
0r
0`
0b
0d
0R
0V
0D
0H
1E
1S
1e
1s
1o
1Q
1C
1m
1P
0x
0N
0\
0l
1'
1&
1)
#750
0-
0*
#800
1-
1*
b1011 !
b101 "
b10 #
b1110 $
b1 %
b1001 /
0@
0?
1>
0;
17
06
12
01
1b
0p
0f
1t
1v
1x
1h
1Z
1\
1L
1N
0&
0'
0[
0i
0)
0m
1_
1l
0^
1i
0w
1'
1)
#850
0-
0*
#900
1-
1*
b1111 !
b11 "
b1010 #
b1010 $
b0 %
b1010 /
0A
0=
18
16
05
11
1n
1p
1r
1`
1d
1f
1R
1T
1V
1X
1D
1H
1J
0C
0I
0E
0Q
0P
0S
0_
0e
0a
0l
0o
1l
1^
1_
1P
1B
1C
0M
0i
1(
1&
#950
0-
0*
#1000
1-
1*
b10 !
b1010 "
b1 #
b1000 $
b1011 /
0>
1;
0:
08
07
14
03
01
00
1E
1S
1o
1I
1e
0s
1m
0_
0C
0l
0P
0B
1M
1[
1w
0)
0'
0&
#1050
0-
0*
#1100
1-
1*
b1001 !
b1011 "
b110 #
b110 $
b10 %
b1100 /
1@
1>
1=
0<
0;
1:
19
17
13
02
10
0E
1a
0o
0W
0e
1s
0v
0x
0h
0Z
0L
1i
1)
0m
1_
1Q
1l
0^
1B
0\
0j
1x
0)
1'
#1150
0-
0*
#1200
1-
1*
b1100 !
b1010 "
b1011 #
b1 $
b1 %
b1101 /
1A
0@
1?
0>
0=
1;
09
18
07
03
11
0S
1o
0I
1W
0s
0t
1v
1h
1j
1Z
1\
1L
0n
0r
0`
0b
0d
0R
0V
0D
0F
0H
1I
1E
1S
1e
1^
1s
0M
0'
0(
0w
1m
0Q
0l
1w
1&
0i
0_
1(
#1250
0-
0*
#1300
1-
1*
b1111 !
b1011 "
b1010 #
b1110 $
b1110 /
0?
1>
1=
1<
0;
17
13
12
0p
0J
0X
0f
1t
0m
1_
1Q
1C
1l
0w
1)
#1350
0-
0*
#1400
1-
1*
b1 !
b1001 "
b10 #
b1100 $
b11 %
b1111 /
1@
0>
08
06
02
01
00
1b
1f
0v
0h
0j
0Z
0\
0L
0N
1M
1'
1i
1w
0_
0^
1j
0)
0(
#1450
0-
0*
#1500
1-
1*
b1111 !
b1000 "
b111 #
b1111 $
b0 %
b10000 /
0A
0@
1?
1>
1;
19
07
12
11
10
1v
1h
1Z
1\
1L
1N
1n
1p
1r
1`
1d
1R
1V
1X
1D
1F
1H
1J
0C
0B
0E
0Q
0W
0S
0e
0a
0s
0l
0o
0&
0'
1l
1m
1^
1_
1P
1Q
1B
0M
0[
0i
0w
1)
1(
1'
1&
#1550
0-
0*
#1600
1-
1*
b1011 !
b1001 "
b1001 #
b0 $
b11 %
b10001 /
1A
1@
0?
0>
0=
0<
0:
09
18
17
01
1S
0p
0I
1W
1e
0v
0x
0h
0j
0Z
0\
0L
0n
0r
0`
0d
0R
0V
0D
0F
0H
1I
1E
1a
1s
1o
1M
1[
1i
1w
0_
0Q
0P
1\
1j
0&
0m
0^
1x
0(
0'
0)
#1650
0-
0*
#1700
1-
1*
b1 !
b110 "
b1100 #
b10 $
b0 %
b10010 /
0A
0@
1>
0;
19
07
16
15
04
02
00
1v
1h
1Z
1L
1n
1p
1r
1`
1d
1R
1V
1D
1F
1H
0I
0B
0W
0l
0o
1l
1Q
1C
0w
1)
#1750
0-
0*
#1800
1-
1*
b111 !
b1101 "
b10 #
b1110 $
b1 %
b10011 /
1A
1=
1<
1:
09
08
17
06
14
12
11
0S
0a
0F
0p
1I
1W
0e
0J
0X
0n
0r
0`
0d
0f
0R
0T
0V
0D
0H
1S
1e
1a
1o
1_
1B
1P
0[
0M
1&
1'
#1850
0-
0*
#1900
1-
1*
b1001 !
b1111 "
b11 #
b101 $
b0 %
b10100 /
0A
1?
0>
0<
1;
16
02
01
10
1n
1p
1r
1`
1d
1f
1R
1T
1V
1X
1D
1F
1H
1J
0C
0B
0E
0Q
0P
0_
0e
0s
0l
0o
1l
1m
1_
1[
1B
0'
#1950
0-
0*
#2000
1-
1*
b1011 !
b1001 "
b1111 #
b1010 $
b10101 /
0?
1>
0=
1<
19
18
06
05
12
0a
0I
0W
1Q
1C
1^
0i
1(
#2050
0-
0*
#2100
1-
1*
b110 !
b1110 "
b1100 #
b10 %
b10110 /
1@
0;
0:
07
16
15
03
11
00
1E
0S
1o
1e
1s
0v
0x
0h
0j
0Z
0\
0L
0N
1M
1'
1i
1w
0m
0_
0l
1P
0B
1j
1x
0)
0(
#2150
0-
0*
#2200
1-
1*
b11 !
b11 "
b1111 #
b11 $
b11 %
b10111 /
1A
1?
0<
1;
1:
17
05
04
13
01
1S
0o
0p
0e
0s
0t
0n
0r
0`
0b
0d
0f
0R
0V
0D
0H
1I
1W
1e
1a
1s
1o
1m
1_
1l
0P
0j
0x
0Q
0C
1N
1\
1)
1(
0'
0&
#2250
0-
0*
#2300
1-
1*
b100 !
b111 "
b1011 #
b110 $
b10 %
b11000 /
0A
0?
1=
09
15
03
02
11
1n
1p
1r
1t
1`
1b
1d
1f
1R
1V
1D
1H
0I
0S
0_
0e
0^
0m
0s
0l
1m
1_
1P
1C
0N
1&
#2350
0-
0*
#2400
1-
1*
b1001 !
b1101 "
b1010 #
b101 $
b1 %
b11001 /
1A
0@
1?
0>
0;
06
14
13
01
10
0E
1S
0o
0F
1s
0t
1v
1x
1h
1j
1Z
1L
1N
0n
0p
0r
0`
0d
0R
0T
0V
0X
0D
0H
1I
1E
1Q
1e
1o
0&
0[
0(
0)
1l
1B
0M
0w
1'
0_
0C
1)
1&
#2450
0-
0*
#2500
1-
1*
b1111 !
b1001 "
b100 #
b0 $
b10 %
b11010 /
0A
1@
0?
0=
0:
19
08
05
12
11
0v
0x
0h
0Z
0\
0L
1n
1p
1r
1t
1`
1d
1R
1T
1V
1X
1D
1F
1H
0B
0E
0Q
0W
0P
0S
0a
0m
0l
0o
1M
1[
1w
0&
1l
1x
1^
1P
1Q
1B
0)
#2550
0-
0*
#2600
1-
1*
b1011 !
b1110 "
b1100 #
b1010 $
b1 %
b11011 /
1A
0@
1>
1<
18
07
16
15
01
1S
0T
0b
0I
0J
0f
1v
1h
1Z
1\
1L
0n
0r
0`
0d
0R
0V
0D
0F
0H
1I
1E
1W
1a
1o
0M
0'
0[
0i
0w
1_
1C
1)
1(
1'
1&
0l
0Q
1w
0)
#2650
0-
0*
#2700
1-
1*
b11 !
b110 "
b1110 #
b111 $
b10 %
b11100 /
0A
1@
1?
1=
0<
1:
04
00
0v
0h
0j
0Z
0L
0N
1n
1r
1`
1b
1d
1f
1R
1T
1V
1D
1F
1H
1J
0C
0I
0B
0W
0P
0_
0e
0^
0a
0o
1M
1[
1i
0'
1l
1^
1_
1Q
1C
0\
1'
#2750
0-
0*
#2800
1-
1*
b110 !
b1000 "
b1001 #
b1000 $
b0 %
b11101 /
0@
0?
0>
0=
1<
1;
0:
09
06
05
14
03
11
0S
1o
1W
1e
0s
1v
1h
1j
1Z
1\
1L
1N
0&
0'
0(
0i
0w
1m
0_
0Q
0l
1P
0[
1w
1(
1'
#2850
0-
0*
#2900
1-
1*
b11 !
b100 "
b1011 $
b1 %
b11110 /
1A
1?
1>
15
04
13
01
1S
0o
0T
0f
0t
0n
0r
0`
0d
0R
0V
0D
0H
0J
1I
1a
1s
1o
1_
0^
1i
0(
#2950
0-
0*
#3000
1-
1*
b1001 !
b1101 "
b110 #
b1010 $
b10 %
b11111 /
0A
1@
0?
0;
1:
19
08
17
14
02
10
0v
0x
0h
0j
0Z
0L
0N
1n
1r
1t
1`
1d
1f
1R
1T
1V
1D
1H
1J
0C
0E
0W
0P
0_
0e
0m
0o
1&
1[
1(
1)
0'
1l
1x
1_
1Q
1B
1N
0&
0\
0)
1'
#3050
0-
0*
#3100
1-
1*
b101 !
b110 "
b100 #
b111 $
b1 %
b100000 /
1A
0@
1?
1=
0<
0:
07
16
04
11
00
1E
0S
0b
1e
0X
0t
1v
1h
1j
1Z
1\
1L
0n
0r
0`
0d
0f
0R
0T
0V
0D
0H
1W
1S
1o
0M
0'
0(
0w
1m
1^
1P
0B
1M
0[
0i
1)
0l
1w
1(
1'
0)
