HW1/hw1_3/dump.vcd
$date
	Sat Jan 28 23:41:01 2017
$end
$version
	QuestaSim Version 10.4c
$end
$timescale
	1ns
$end

$scope module seqdec_97_bench $end
$var reg 1 ! InA $end
$var wire 1 " Clk $end
$var wire 1 # Reset $end
$var wire 1 $ Out $end
$var reg 128 % sequenc [127:0] $end
$var integer 32 & k $end
$var reg 8 ' seq [7:0] $end
$var reg 8 ( seqp1 [7:0] $end
$var wire 1 ) err $end

$scope module DUT $end
$var wire 1 " Clk $end
$var wire 1 # Reset $end
$var wire 1 * InA $end
$var wire 1 $ Out $end
$var wire 1 + state [3] $end
$var wire 1 , state [2] $end
$var wire 1 - state [1] $end
$var wire 1 . state [0] $end
$var reg 4 / next_state [3:0] $end

$scope module curr_state[3] $end
$var wire 1 + q $end
$var wire 1 0 d $end
$var wire 1 " clk $end
$var wire 1 # rst $end
$var reg 1 1 state $end
$upscope $end

$scope module curr_state[2] $end
$var wire 1 , q $end
$var wire 1 2 d $end
$var wire 1 " clk $end
$var wire 1 # rst $end
$var reg 1 3 state $end
$upscope $end

$scope module curr_state[1] $end
$var wire 1 - q $end
$var wire 1 4 d $end
$var wire 1 " clk $end
$var wire 1 # rst $end
$var reg 1 5 state $end
$upscope $end

$scope module curr_state[0] $end
$var wire 1 . q $end
$var wire 1 6 d $end
$var wire 1 " clk $end
$var wire 1 # rst $end
$var reg 1 7 state $end
$upscope $end
$upscope $end

$scope module my_ckrst $end
$var reg 1 8 clk $end
$var reg 1 9 rst $end
$var wire 1 ) err $end
$var integer 32 : cycle_count $end
$upscope $end
$upscope $end
$enddefinitions $end
#0
$dumpvars
0!
b1010001000010100001010100101110010111001000010100001000101001101010011001010001010000010000101100101110100001001010011 %
b0 '
b0 (
b0 /
07
05
03
01
18
19
b0 &
b1 :
1"
1#
x$
0)
x.
x-
x,
x+
0*
06
04
02
00
$end
#1
0+
0,
0-
0.
0$
#50
08
0"
#100
18
1"
b10 :
#150
08
0"
#200
18
1"
b11 :
#201
09
0#
#250
08
0"
#300
18
1"
b1 &
b100 :
#350
08
0"
#400
18
1"
b10 &
b101 :
#450
08
0"
#500
18
1"
b11 &
b110 :
#550
08
0"
#600
18
1"
b100 &
b111 :
#650
08
0"
#700
18
1"
b101 &
b1000 :
#750
08
0"
#800
18
1"
b110 &
b1001 :
#850
08
0"
#900
18
1"
b111 &
b1010 :
#950
08
0"
#1000
18
1"
b1000 &
b1011 :
#1050
08
0"
#1100
18
1"
b1001 &
b1100 :
#1150
08
0"
#1200
18
1"
b1010 &
b1101 :
#1250
08
0"
#1300
18
1"
1!
b1011 &
b1110 :
1*
b1 /
16
b1 '
#1350
08
0"
#1400
18
1"
0!
b1100 &
17
b1111 :
0*
b0 /
06
b11 '
b10 '
b1 (
#1401
1.
b10 /
14
#1450
08
0"
#1500
18
1"
1!
b1101 &
15
07
b10000 :
1*
b1 /
16
04
b100 '
b101 '
b10 (
#1501
0.
1-
#1550
08
0"
#1600
18
1"
0!
b1110 &
17
05
b10001 :
0*
b11 /
14
b1011 '
b1010 '
b101 (
#1601
0-
1.
b10 /
06
#1650
08
0"
#1700
18
1"
b1111 &
15
07
b10010 :
b10100 '
b1010 (
#1701
0.
1-
b11 /
16
#1750
08
0"
#1800
18
1"
b10000 &
17
b10011 :
b101000 '
b10100 (
#1801
1.
b0 /
06
04
#1850
08
0"
#1900
18
1"
1!
b10001 &
05
07
b10100 :
1*
b100 /
12
b1010000 '
b1010001 '
b101000 (
#1901
0.
0-
b1 /
16
02
#1950
08
0"
#2000
18
1"
0!
b10010 &
17
b10101 :
0*
b0 /
06
b10100011 '
b10100010 '
b1010001 (
#2001
1.
b10 /
14
#2050
08
0"
#2100
18
1"
b10011 &
15
07
b10110 :
b1000100 '
b10100010 (
#2101
0.
1-
b11 /
16
#2150
08
0"
#2200
18
1"
b10100 &
17
b10111 :
b10001000 '
b1000100 (
#2201
1.
b0 /
06
04
#2250
08
0"
#2300
18
1"
b10101 &
05
07
b11000 :
b10000 '
b10001000 (
#2301
0.
0-
#2350
08
0"
#2400
18
1"
1!
b10110 &
b11001 :
1*
b1 /
16
b100000 '
b100001 '
b10000 (
#2450
08
0"
#2500
18
1"
0!
b10111 &
17
b11010 :
0*
b0 /
06
b1000011 '
b1000010 '
b100001 (
#2501
1.
b10 /
14
#2550
08
0"
#2600
18
1"
1!
b11000 &
15
07
b11011 :
1*
b1 /
16
04
b10000100 '
b10000101 '
b1000010 (
#2601
0.
1-
#2650
08
0"
#2700
18
1"
0!
b11001 &
17
05
b11100 :
0*
b11 /
14
b1011 '
b1010 '
b10000101 (
#2701
0-
1.
b10 /
06
#2750
08
0"
#2800
18
1"
b11010 &
15
07
b11101 :
b10100 '
b1010 (
#2801
0.
1-
b11 /
16
#2850
08
0"
#2900
18
1"
b11011 &
17
b11110 :
b101000 '
b10100 (
#2901
1.
b0 /
06
04
#2950
08
0"
#3000
18
1"
b11100 &
05
07
b11111 :
b1010000 '
b101000 (
#3001
0.
0-
#3050
08
0"
#3100
18
1"
1!
b11101 &
b100000 :
1*
b1 /
16
b10100000 '
b10100001 '
b1010000 (
#3150
08
0"
#3200
18
1"
0!
b11110 &
17
b100001 :
0*
b0 /
06
b1000011 '
b1000010 '
b10100001 (
#3201
1.
b10 /
14
#3250
08
0"
#3300
18
1"
1!
b11111 &
15
07
b100010 :
1*
b1 /
16
04
b10000100 '
b10000101 '
b1000010 (
#3301
0.
1-
#3350
08
0"
#3400
18
1"
0!
b100000 &
17
05
b100011 :
0*
b11 /
14
b1011 '
b1010 '
b10000101 (
#3401
0-
1.
b10 /
06
#3450
08
0"
#3500
18
1"
1!
b100001 &
15
07
b100100 :
1*
b1 /
16
04
b10100 '
b10101 '
b1010 (
#3501
0.
1-
#3550
08
0"
#3600
18
1"
0!
b100010 &
17
05
b100101 :
0*
b11 /
14
b101011 '
b101010 '
b10101 (
#3601
0-
1.
b10 /
06
#3650
08
0"
#3700
18
1"
b100011 &
15
07
b100110 :
b1010100 '
b101010 (
#3701
0.
1-
b11 /
16
#3750
08
0"
#3800
18
1"
1!
b100100 &
17
b100111 :
1*
b1 /
04
b10101000 '
b10101001 '
b1010100 (
#3801
1.
b100 /
06
12
#3850
08
0"
#3900
18
1"
0!
b100101 &
13
05
07
b101000 :
0*
b0 /
02
b1010011 '
b1010010 '
b10101001 (
#3901
0.
0-
1,
b101 /
16
12
#3950
08
0"
#4000
18
1"
1!
b100110 &
17
b101001 :
1*
b1 /
02
b10100100 '
b10100101 '
b1010010 (
#4001
1.
b110 /
06
14
12
#4050
08
0"
#4100
18
1"
b100111 &
15
07
b101010 :
b1001011 '
b10100101 (
#4101
0.
1-
b111 /
16
#4150
08
0"
#4200
18
1"
b101000 &
17
b101011 :
b10010111 '
b1001011 (
#4201
1.
b1000 /
06
04
02
10
#4250
08
0"
#4300
18
1"
0!
b101001 &
11
03
05
07
b101100 :
0*
b10 /
14
00
b101111 '
b101110 '
b10010111 (
#4301
0.
0-
0,
1+
1$
#4350
08
0"
#4400
18
1"
b101010 &
15
01
b101101 :
b1011100 '
b101110 (
#4401
0+
1-
0$
b11 /
16
#4450
08
0"
#4500
18
1"
1!
b101011 &
17
b101110 :
1*
b1 /
04
b10111000 '
b10111001 '
b1011100 (
#4501
1.
b100 /
06
12
#4550
08
0"
#4600
18
1"
0!
b101100 &
13
05
07
b101111 :
0*
b0 /
02
b1110011 '
b1110010 '
b10111001 (
#4601
0.
0-
1,
b101 /
16
12
#4650
08
0"
#4700
18
1"
1!
b101101 &
17
b110000 :
1*
b1 /
02
b11100100 '
b11100101 '
b1110010 (
#4701
1.
b110 /
06
14
12
#4750
08
0"
#4800
18
1"
b101110 &
15
07
b110001 :
b11001011 '
b11100101 (
#4801
0.
1-
b111 /
16
#4850
08
0"
#4900
18
1"
b101111 &
17
b110010 :
b10010111 '
b11001011 (
#4901
1.
b1000 /
06
04
02
10
#4950
08
0"
#5000
18
1"
0!
b110000 &
11
03
05
07
b110011 :
0*
b10 /
14
00
b101111 '
b101110 '
b10010111 (
#5001
0.
0-
0,
1+
1$
#5050
08
0"
#5100
18
1"
b110001 &
15
01
b110100 :
b1011100 '
b101110 (
#5101
0+
1-
0$
b11 /
16
#5150
08
0"
#5200
18
1"
1!
b110010 &
17
b110101 :
1*
b1 /
04
b10111000 '
b10111001 '
b1011100 (
#5201
1.
b100 /
06
12
#5250
08
0"
#5300
18
1"
0!
b110011 &
13
05
07
b110110 :
0*
b0 /
02
b1110011 '
b1110010 '
b10111001 (
#5301
0.
0-
1,
b101 /
16
12
#5350
08
0"
#5400
18
1"
b110100 &
17
b110111 :
b11100100 '
b1110010 (
#5401
1.
b11 /
14
02
#5450
08
0"
#5500
18
1"
b110101 &
03
15
b111000 :
b11001000 '
b11100100 (
#5501
1-
0,
b0 /
06
04
#5550
08
0"
#5600
18
1"
b110110 &
07
05
b111001 :
b10010000 '
b11001000 (
#5601
0-
0.
#5650
08
0"
#5700
18
1"
1!
b110111 &
b111010 :
1*
b1 /
16
b100000 '
b100001 '
b10010000 (
#5750
08
0"
#5800
18
1"
0!
b111000 &
17
b111011 :
0*
b0 /
06
b1000011 '
b1000010 '
b100001 (
#5801
1.
b10 /
14
#5850
08
0"
#5900
18
1"
1!
b111001 &
15
07
b111100 :
1*
b1 /
16
04
b10000100 '
b10000101 '
b1000010 (
#5901
0.
1-
#5950
08
0"
#6000
18
1"
0!
b111010 &
17
05
b111101 :
0*
b11 /
14
b1011 '
b1010 '
b10000101 (
#6001
0-
1.
b10 /
06
#6050
08
0"
#6100
18
1"
b111011 &
15
07
b111110 :
b10100 '
b1010 (
#6101
0.
1-
b11 /
16
#6150
08
0"
#6200
18
1"
b111100 &
17
b111111 :
b101000 '
b10100 (
#6201
1.
b0 /
06
04
#6250
08
0"
#6300
18
1"
b111101 &
05
07
b1000000 :
b1010000 '
b101000 (
#6301
0.
0-
#6350
08
0"
#6400
18
1"
1!
b111110 &
b1000001 :
1*
b1 /
16
b10100000 '
b10100001 '
b1010000 (
#6450
08
0"
#6500
18
1"
0!
b111111 &
17
b1000010 :
0*
b0 /
06
b1000011 '
b1000010 '
b10100001 (
#6501
1.
b10 /
14
#6550
08
0"
#6600
18
1"
b1000000 &
15
07
b1000011 :
b10000100 '
b1000010 (
#6601
0.
1-
b11 /
16
#6650
08
0"
#6700
18
1"
b1000001 &
17
b1000100 :
b1000 '
b10000100 (
#6701
1.
b0 /
06
04
#6750
08
0"
#6800
18
1"
1!
b1000010 &
05
07
b1000101 :
1*
b100 /
12
b10000 '
b10001 '
b1000 (
#6801
0.
0-
b1 /
16
02
#6850
08
0"
#6900
18
1"
0!
b1000011 &
17
b1000110 :
0*
b0 /
06
b100011 '
b100010 '
b10001 (
#6901
1.
b10 /
14
#6950
08
0"
#7000
18
1"
1!
b1000100 &
15
07
b1000111 :
1*
b1 /
16
04
b1000100 '
b1000101 '
b100010 (
#7001
0.
1-
#7050
08
0"
#7100
18
1"
0!
b1000101 &
17
05
b1001000 :
0*
b11 /
14
b10001011 '
b10001010 '
b1000101 (
#7101
0-
1.
b10 /
06
#7150
08
0"
#7200
18
1"
b1000110 &
15
07
b1001001 :
b10100 '
b10001010 (
#7201
0.
1-
b11 /
16
#7250
08
0"
#7300
18
1"
1!
b1000111 &
17
b1001010 :
1*
b1 /
04
b101000 '
b101001 '
b10100 (
#7301
1.
b100 /
06
12
#7350
08
0"
#7400
18
1"
b1001000 &
13
05
07
b1001011 :
b1010011 '
b101001 (
#7401
0.
0-
1,
b1 /
16
02
#7450
08
0"
#7500
18
1"
0!
b1001001 &
17
03
b1001100 :
0*
b101 /
12
b10100111 '
b10100110 '
b1010011 (
#7501
0,
1.
b10 /
06
14
02
#7550
08
0"
#7600
18
1"
1!
b1001010 &
15
07
b1001101 :
1*
b1 /
16
04
b1001100 '
b1001101 '
b10100110 (
#7601
0.
1-
#7650
08
0"
#7700
18
1"
0!
b1001011 &
17
05
b1001110 :
0*
b11 /
14
b10011011 '
b10011010 '
b1001101 (
#7701
0-
1.
b10 /
06
#7750
08
0"
#7800
18
1"
1!
b1001100 &
15
07
b1001111 :
1*
b1 /
16
04
b110100 '
b110101 '
b10011010 (
#7801
0.
1-
#7850
08
0"
#7900
18
1"
0!
b1001101 &
17
05
b1010000 :
0*
b11 /
14
b1101011 '
b1101010 '
b110101 (
#7901
0-
1.
b10 /
06
#7950
08
0"
#8000
18
1"
b1001110 &
15
07
b1010001 :
b11010100 '
b1101010 (
#8001
0.
1-
b11 /
16
#8050
08
0"
#8100
18
1"
1!
b1001111 &
17
b1010010 :
1*
b1 /
04
b10101000 '
b10101001 '
b11010100 (
#8101
1.
b100 /
06
12
#8150
08
0"
#8200
18
1"
b1010000 &
13
05
07
b1010011 :
b1010011 '
b10101001 (
#8201
0.
0-
1,
b1 /
16
02
#8250
08
0"
#8300
18
1"
0!
b1010001 &
17
03
b1010100 :
0*
b101 /
12
b10100111 '
b10100110 '
b1010011 (
#8301
0,
1.
b10 /
06
14
02
#8350
08
0"
#8400
18
1"
b1010010 &
15
07
b1010101 :
b1001100 '
b10100110 (
#8401
0.
1-
b11 /
16
#8450
08
0"
#8500
18
1"
1!
b1010011 &
17
b1010110 :
1*
b1 /
04
b10011000 '
b10011001 '
b1001100 (
#8501
1.
b100 /
06
12
#8550
08
0"
#8600
18
1"
0!
b1010100 &
13
05
07
b1010111 :
0*
b0 /
02
b110011 '
b110010 '
b10011001 (
#8601
0.
0-
1,
b101 /
16
12
#8650
08
0"
#8700
18
1"
1!
b1010101 &
17
b1011000 :
1*
b1 /
02
b1100100 '
b1100101 '
b110010 (
#8701
1.
b110 /
06
14
12
#8750
08
0"
#8800
18
1"
0!
b1010110 &
15
07
b1011001 :
0*
b11 /
16
02
b11001011 '
b11001010 '
b1100101 (
#8801
0.
1-
b10 /
06
#8850
08
0"
#8900
18
1"
b1010111 &
03
b1011010 :
b10010100 '
b11001010 (
#8901
0,
b11 /
16
#8950
08
0"
#9000
18
1"
b1011000 &
17
b1011011 :
b101000 '
b10010100 (
#9001
1.
b0 /
06
04
#9050
08
0"
#9100
18
1"
1!
b1011001 &
05
07
b1011100 :
1*
b100 /
12
b1010000 '
b1010001 '
b101000 (
#9101
0.
0-
b1 /
16
02
#9150
08
0"
#9200
18
1"
0!
b1011010 &
17
b1011101 :
0*
b0 /
06
b10100011 '
b10100010 '
b1010001 (
#9201
1.
b10 /
14
#9250
08
0"
#9300
18
1"
1!
b1011011 &
15
07
b1011110 :
1*
b1 /
16
04
b1000100 '
b1000101 '
b10100010 (
#9301
0.
1-
#9350
08
0"
#9400
18
1"
0!
b1011100 &
17
05
b1011111 :
0*
b11 /
14
b10001011 '
b10001010 '
b1000101 (
#9401
0-
1.
b10 /
06
#9450
08
0"
#9500
18
1"
b1011101 &
15
07
b1100000 :
b10100 '
b10001010 (
#9501
0.
1-
b11 /
16
#9550
08
0"
#9600
18
1"
b1011110 &
17
b1100001 :
b101000 '
b10100 (
#9601
1.
b0 /
06
04
#9650
08
0"
#9700
18
1"
b1011111 &
05
07
b1100010 :
b1010000 '
b101000 (
#9701
0.
0-
#9750
08
0"
#9800
18
1"
b1100000 &
b1100011 :
b10100000 '
b1010000 (
#9850
08
0"
#9900
18
1"
1!
b1100001 &
b1100100 :
1*
b1 /
16
b1000000 '
b1000001 '
b10100000 (
#9950
08
0"
#10000
18
1"
0!
b1100010 &
17
b1100101 :
0*
b0 /
06
b10000011 '
b10000010 '
b1000001 (
#10001
1.
b10 /
14
#10050
08
0"
#10100
18
1"
b1100011 &
15
07
b1100110 :
b100 '
b10000010 (
#10101
0.
1-
b11 /
16
#10150
08
0"
#10200
18
1"
b1100100 &
17
b1100111 :
b1000 '
b100 (
#10201
1.
b0 /
06
04
#10250
08
0"
#10300
18
1"
b1100101 &
05
07
b1101000 :
b10000 '
b1000 (
#10301
0.
0-
#10350
08
0"
#10400
18
1"
1!
b1100110 &
b1101001 :
1*
b1 /
16
b100000 '
b100001 '
b10000 (
#10450
08
0"
#10500
18
1"
0!
b1100111 &
17
b1101010 :
0*
b0 /
06
b1000011 '
b1000010 '
b100001 (
#10501
1.
b10 /
14
#10550
08
0"
#10600
18
1"
1!
b1101000 &
15
07
b1101011 :
1*
b1 /
16
04
b10000100 '
b10000101 '
b1000010 (
#10601
0.
1-
#10650
08
0"
#10700
18
1"
b1101001 &
17
05
b1101100 :
b1011 '
b10000101 (
#10701
0-
1.
#10750
08
0"
#10800
18
1"
0!
b1101010 &
b1101101 :
0*
b10 /
06
14
b10111 '
b10110 '
b1011 (
#10850
08
0"
#10900
18
1"
b1101011 &
15
07
b1101110 :
b101100 '
b10110 (
#10901
0.
1-
b11 /
16
#10950
08
0"
#11000
18
1"
1!
b1101100 &
17
b1101111 :
1*
b1 /
04
b1011000 '
b1011001 '
b101100 (
#11001
1.
b100 /
06
12
#11050
08
0"
#11100
18
1"
0!
b1101101 &
13
05
07
b1110000 :
0*
b0 /
02
b10110011 '
b10110010 '
b1011001 (
#11101
0.
0-
1,
b101 /
16
12
#11150
08
0"
#11200
18
1"
1!
b1101110 &
17
b1110001 :
1*
b1 /
02
b1100100 '
b1100101 '
b10110010 (
#11201
1.
b110 /
06
14
12
#11250
08
0"
#11300
18
1"
b1101111 &
15
07
b1110010 :
b11001011 '
b1100101 (
#11301
0.
1-
b111 /
16
#11350
08
0"
#11400
18
1"
b1110000 &
17
b1110011 :
b10010111 '
b11001011 (
#11401
1.
b1000 /
06
04
02
10
#11450
08
0"
#11500
18
1"
0!
b1110001 &
11
03
05
07
b1110100 :
0*
b10 /
14
00
b101111 '
b101110 '
b10010111 (
#11501
0.
0-
0,
1+
1$
#11550
08
0"
#11600
18
1"
1!
b1110010 &
15
01
b1110101 :
1*
b1 /
16
04
b1011100 '
b1011101 '
b101110 (
#11601
0+
1-
0$
#11650
08
0"
#11700
18
1"
0!
b1110011 &
17
05
b1110110 :
0*
b11 /
14
b10111011 '
b10111010 '
b1011101 (
#11701
0-
1.
b10 /
06
#11750
08
0"
#11800
18
1"
b1110100 &
15
07
b1110111 :
b1110100 '
b10111010 (
#11801
0.
1-
b11 /
16
#11850
08
0"
#11900
18
1"
b1110101 &
17
b1111000 :
b11101000 '
b1110100 (
#11901
1.
b0 /
06
04
#11950
08
0"
#12000
18
1"
b1110110 &
05
07
b1111001 :
b11010000 '
b11101000 (
#12001
0.
0-
#12050
08
0"
#12100
18
1"
1!
b1110111 &
b1111010 :
1*
b1 /
16
b10100000 '
b10100001 '
b11010000 (
#12150
08
0"
#12200
18
1"
0!
b1111000 &
17
b1111011 :
0*
b0 /
06
b1000011 '
b1000010 '
b10100001 (
#12201
1.
b10 /
14
#12250
08
0"
#12300
18
1"
b1111001 &
15
07
b1111100 :
b10000100 '
b1000010 (
#12301
0.
1-
b11 /
16
#12350
08
0"
#12400
18
1"
1!
b1111010 &
17
b1111101 :
1*
b1 /
04
b1000 '
b1001 '
b10000100 (
#12401
1.
b100 /
06
12
#12450
08
0"
#12500
18
1"
0!
b1111011 &
13
05
07
b1111110 :
0*
b0 /
02
b10011 '
b10010 '
b1001 (
#12501
0.
0-
1,
b101 /
16
12
#12550
08
0"
#12600
18
1"
1!
b1111100 &
17
b1111111 :
1*
b1 /
02
b100100 '
b100101 '
b10010 (
#12601
1.
b110 /
06
14
12
#12650
08
0"
#12700
18
1"
0!
b1111101 &
15
07
b10000000 :
0*
b11 /
16
02
b1001011 '
b1001010 '
b100101 (
#12701
0.
1-
b10 /
06
#12750
08
0"
#12800
18
1"
b1111110 &
03
b10000001 :
b10010100 '
b1001010 (
#12801
0,
b11 /
16
#12850
08
0"
#12900
18
1"
1!
b1111111 &
17
b10000010 :
1*
b1 /
04
b101000 '
b101001 '
b10010100 (
#12901
1.
b100 /
06
12
#12950
08
0"
#13000
18
1"
b10000000 &
